{
  "__type__": "cc.AnimationClip",
  "_name": "boss_cast",
  "_objFlags": 0,
  "_native": "",
  "_duration": 0.6833333333333333,
  "sample": 60,
  "speed": 1,
  "wrapMode": 1,
  "curveData": {
    "comps": {
      "cc.Sprite": {
        "spriteFrame": [
          {
            "frame": 0,
            "value": {
              "__uuid__": "2f36eebb-dff3-46f1-8fcb-bbf24899075b"
            }
          },
          {
            "frame": 0.08333333333333333,
            "value": {
              "__uuid__": "fbbff74c-f657-4554-a590-8d9d82013d00"
            }
          },
          {
            "frame": 0.16666666666666666,
            "value": {
              "__uuid__": "4ba3536e-95ae-42bf-9044-2b34d8ca90dc"
            }
          },
          {
            "frame": 0.25,
            "value": {
              "__uuid__": "b8b8d802-4c73-4df1-8256-ae1483434945"
            }
          },
          {
            "frame": 0.3333333333333333,
            "value": {
              "__uuid__": "d830a000-9f4f-4b15-9759-3896fa14cbcb"
            }
          },
          {
            "frame": 0.4166666666666667,
            "value": {
              "__uuid__": "787b9a25-10d1-4749-a900-d047854e9a14"
            }
          },
          {
            "frame": 0.5,
            "value": {
              "__uuid__": "685c27c8-81e0-486e-8a18-f07476633bcf"
            }
          },
          {
            "frame": 0.5833333333333334,
            "value": {
              "__uuid__": "742ddb43-6daa-4256-9542-41b03ebb564e"
            }
          },
          {
            "frame": 0.6666666666666666,
            "value": {
              "__uuid__": "1ab59a21-c2a2-47f1-be43-d925a6d7cb65"
            }
          }
        ]
      }
    }
  },
  "events": []
}