{
  "__type__": "cc.AnimationClip",
  "_name": "boss_ready_teleport",
  "_objFlags": 0,
  "_native": "",
  "_duration": 0.5166666666666667,
  "sample": 60,
  "speed": 1,
  "wrapMode": 1,
  "curveData": {
    "comps": {
      "cc.Sprite": {
        "spriteFrame": [
          {
            "frame": 0,
            "value": {
              "__uuid__": "e0ab7e8e-faa9-456e-9689-645e03d8e216"
            }
          },
          {
            "frame": 0.08333333333333333,
            "value": {
              "__uuid__": "dfbba28c-d007-49dd-b749-49522693185e"
            }
          },
          {
            "frame": 0.16666666666666666,
            "value": {
              "__uuid__": "44730fd3-b391-4edc-884c-2f370c8a91af"
            }
          },
          {
            "frame": 0.25,
            "value": {
              "__uuid__": "8fcaa71d-f47d-48be-971a-d39dd0ceac5a"
            }
          },
          {
            "frame": 0.3333333333333333,
            "value": {
              "__uuid__": "f61eb771-4b2f-4d5f-a7e8-f1ebe5268167"
            }
          },
          {
            "frame": 0.4166666666666667,
            "value": {
              "__uuid__": "49d4e23e-4ef3-41a6-b2b1-1c65abb201be"
            }
          },
          {
            "frame": 0.5,
            "value": {
              "__uuid__": "1ab59a21-c2a2-47f1-be43-d925a6d7cb65"
            }
          }
        ]
      }
    }
  },
  "events": []
}