{
  "__type__": "cc.AnimationClip",
  "_name": "yellow_slime_idle",
  "_objFlags": 0,
  "_native": "",
  "_duration": 2.683333333333333,
  "sample": 60,
  "speed": 1,
  "wrapMode": 1,
  "curveData": {
    "comps": {
      "cc.Sprite": {
        "spriteFrame": [
          {
            "frame": 0,
            "value": {
              "__uuid__": "c22f0374-7fc7-4563-92d1-a02af175c3ca"
            }
          },
          {
            "frame": 0.31666666666666665,
            "value": {
              "__uuid__": "8224bbbd-55fc-47e1-9290-9364cc387c1d"
            }
          },
          {
            "frame": 0.65,
            "value": {
              "__uuid__": "2b02e1c8-0b96-4ef3-8cdf-ed29ee41523b"
            }
          },
          {
            "frame": 0.9833333333333333,
            "value": {
              "__uuid__": "0dd3a3ce-108d-4750-ba6c-19d1bdfdc068"
            }
          },
          {
            "frame": 1.3166666666666667,
            "value": {
              "__uuid__": "ba1e85a0-27ab-40fb-a297-bdefeffb30bd"
            }
          },
          {
            "frame": 1.65,
            "value": {
              "__uuid__": "88a3e8ac-dd79-45c2-b18d-ebd5aa3d98bf"
            }
          },
          {
            "frame": 2,
            "value": {
              "__uuid__": "25ec2ed5-bed5-4b21-a9ce-6b6ce6d4f13b"
            }
          },
          {
            "frame": 2.3333333333333335,
            "value": {
              "__uuid__": "359525d2-ff5d-44f0-86c4-0e09596d2457"
            }
          },
          {
            "frame": 2.6666666666666665,
            "value": {
              "__uuid__": "22b5399d-d4db-4db4-9100-5d5af192dacf"
            }
          }
        ]
      }
    }
  },
  "events": []
}