{
  "__type__": "cc.AnimationClip",
  "_name": "normal",
  "_objFlags": 0,
  "_native": "",
  "_duration": 2,
  "sample": 60,
  "speed": 1,
  "wrapMode": 0,
  "curveData": {
    "paths": {
      "left": {
        "props": {
          "position": [
            {
              "frame": 0,
              "value": [
                -466.687,
                -287.906,
                0
              ]
            },
            {
              "frame": 2,
              "value": [
                0,
                -287.906,
                0
              ]
            }
          ]
        }
      },
      "right": {
        "props": {
          "position": [
            {
              "frame": 0,
              "value": [
                465.517,
                -287.906,
                0
              ]
            },
            {
              "frame": 2,
              "value": [
                0,
                -287.906,
                0
              ]
            }
          ]
        }
      }
    }
  },
  "events": []
}