{
  "__type__": "cc.AnimationClip",
  "_name": "guide_line_3",
  "_objFlags": 0,
  "_native": "",
  "_duration": 1,
  "sample": 60,
  "speed": 1,
  "wrapMode": 1,
  "curveData": {
    "props": {
      "position": [
        {
          "frame": 0,
          "value": [
            418.412,
            -1254.86,
            0
          ]
        },
        {
          "frame": 1,
          "value": [
            -8.904,
            -1254.86,
            0
          ]
        }
      ]
    }
  },
  "events": []
}