{
  "__type__": "cc.AnimationClip",
  "_name": "to_right",
  "_objFlags": 0,
  "_native": "",
  "_duration": 0.11666666666666667,
  "sample": 60,
  "speed": 1,
  "wrapMode": 1,
  "curveData": {
    "props": {
      "scaleX": [
        {
          "frame": 0,
          "value": -0.069
        }
      ],
      "x": [
        {
          "frame": 0,
          "value": 36.577
        },
        {
          "frame": 0.11666666666666667,
          "value": 143.424
        }
      ]
    }
  },
  "events": []
}